{
  "clinics":
  [
    {
      "type": "cardiology",
      "id": "1",
      "name": "Heart Failure - Cardiology - Leeds TH (Leeds Gen Inf) - RR8",
      "location": "Leeds General Infirmary, Leeds, LS1 3EX",
      "lat": 53.801445,
      "lng": -1.551743,
      "phone_number": "",
      "distance_away": "15",
      "distance_bucket": "25",
      "cqc_rating_number": "3",
      "cqc_rating": "imp",
      "accessibility": ["braille", "disabled-parking", "disabled-wc", "induction-loop", "rnid", "signing", "wheelchair-access", "step-free-access"],
      "facilities": ["cafe", "pharmacy", "library", "shop"],
      "choices_rating": "4",
      "parking": ["car", "cycle", "disabled"],
      "appointments":
      [
        {
          "id": "1",
          "days_in_future": "1",
          "time": "11:00",
          "referral_for": "Heart failure"
        },
        {
          "id": "2",
          "days_in_future": "7",
          "time": "14:00",
          "referral_for": "Heart failure"
        },
        {
          "id": "3",
          "days_in_future": "14",
          "time": "15:00",
          "referral_for": "Heart failure"
        },
        {
          "id": "4",
          "days_in_future": "21",
          "time": "17:00",
          "referral_for": "Heart failure"
        },
        {
          "id": "5",
          "days_in_future": "28",
          "time": "18:00",
          "referral_for": "Heart failure"
        },
        {
          "id": "6",
          "days_in_future": "56",
          "time": "09:00",
          "referral_for": "Death"
        }
      ]
    },
    {
      "type": "cardiology",
      "id": "2",
      "name": "Cardiology Heart Failure - Harrogate Trust (Harrogate District Hospital) - RCD",
      "location": "Lancaster Park Road, Harrogate, North Yorkshire, HG2 7SX",
      "lat": 53.993009,
      "lng": -1.518117,
      "phone_number": "",
      "distance_away": "13",
      "distance_bucket": "25",
      "cqc_rating_number": "2",
      "cqc_rating": "good",
      "accessibility": ["disabled-parking", "disabled-wc", "induction-loop", "rnid", "signing", "wheelchair-access", "step-free-access"],
      "facilities": ["cafe", "shop"],
      "choices_rating": "3",
      "parking": ["car", "disabled"],
      "appointments":
      [
        {
          "id": "1",
          "days_in_future": "10",
          "time": "10:00",
          "referral_for": "Heart failure"
        },
        {
          "id": "2",
          "days_in_future": "7",
          "time": "14:00",
          "referral_for": "Heart failure"
        },
        {
          "id": "3",
          "days_in_future": "14",
          "time": "15:00",
          "referral_for": "Heart failure"
        },
        {
          "id": "4",
          "days_in_future": "21",
          "time": "17:00",
          "referral_for": "Heart failure"
        },
        {
          "id": "5",
          "days_in_future": "28",
          "time": "18:00",
          "referral_for": "Heart failure"
        }
      ]
    },
    {
      "type": "cardiology",
      "id": "3",
      "name": "General Cardiology - Cardiology - Rotherham Foundation Trust - RFR",
      "location": "Moorgate Rd, Rotherham, South Yorkshire S60 2UD",
      "lat": 53.414411,
      "lng": -1.342573,
      "phone_number": "",
      "distance_away": "28",
      "distance_bucket": "50",
      "cqc_rating_number": "2",
      "cqc_rating": "good",
      "accessibility": ["braille", "disabled-parking", "disabled-wc", "induction-loop", "rnid", "signing", "wheelchair-access", "step-free-access"],
      "facilities": ["cafe", "pharmacy", "library", "shop"],
      "choices_rating": "4",
      "parking": ["car", "cycle", "disabled"],
      "appointments":
      [
        {
          "id": "1",
          "days_in_future": "5",
          "time": "10:00",
          "referral_for": "Heart failure"
        },
        {
          "id": "2",
          "days_in_future": "7",
          "time": "14:00",
          "referral_for": "Heart failure"
        },
        {
          "id": "3",
          "days_in_future": "14",
          "time": "15:00",
          "referral_for": "Heart failure"
        },
        {
          "id": "4",
          "days_in_future": "21",
          "time": "17:00",
          "referral_for": "Heart failure"
        },
        {
          "id": "5",
          "days_in_future": "28",
          "time": "18:00",
          "referral_for": "Heart failure"
        }
      ]
    },
    {
      "type": "cardiology",
      "id": "4",
      "name": "General Cardiology - Cardiology - Rotherham Foundation Trust - RFR",
      "location": "Moorgate Rd, Rotherham, South Yorkshire S60 2UD",
      "lat": 53.414411,
      "lng": -1.342573,
      "phone_number": "",
      "distance_away": "28",
      "distance_bucket": "50",
      "cqc_rating_number": "2",
      "cqc_rating": "good",
      "accessibility": ["braille", "disabled-parking", "disabled-wc", "induction-loop", "rnid", "signing", "wheelchair-access", "step-free-access"],
      "facilities": ["cafe", "pharmacy", "library", "shop"],
      "choices_rating": "4",
      "parking": ["car", "cycle", "disabled"],
      "appointments":
      [
        {
          "id": "1",
          "days_in_future": "21",
          "time": "10:00",
          "referral_for": "Heart failure"
        },
        {
          "id": "2",
          "days_in_future": "7",
          "time": "14:00",
          "referral_for": "Heart failure"
        },
        {
          "id": "3",
          "days_in_future": "14",
          "time": "15:00",
          "referral_for": "Heart failure"
        },
        {
          "id": "4",
          "days_in_future": "21",
          "time": "17:00",
          "referral_for": "Heart failure"
        },
        {
          "id": "5",
          "days_in_future": "28",
          "time": "18:00",
          "referral_for": "Heart failure"
        }
      ]
    },
    {
      "type": "cardiology",
      "id": "5",
      "name": "Referral Gateway - Cardiology",
      "location": "Ellen house, Oldham, Lancashire, OL9 6EE",
      "lat": 53.548134,
      "lng": -2.130147,
      "phone_number": "",
      "distance_away": "30",
      "distance_bucket": "50",
      "telephone_appointment": "true",
      "cqc_rating_number": "2",
      "cqc_rating": "good",
      "accessibility": ["braille", "disabled-parking", "disabled-wc", "induction-loop", "rnid", "signing", "wheelchair-access", "step-free-access"],
      "facilities": ["cafe", "pharmacy", "library", "shop"],
      "choices_rating": "4",
      "parking": ["car", "cycle", "disabled"],
      "appointments":
      [
        {
          "id": "1",
          "days_in_future": "15",
          "time": "10:00",
          "referral_for": "Heart failure"
        },
        {
          "id": "2",
          "days_in_future": "7",
          "time": "14:00",
          "referral_for": "Heart failure"
        },
        {
          "id": "3",
          "days_in_future": "14",
          "time": "15:00",
          "referral_for": "Heart failure"
        },
        {
          "id": "4",
          "days_in_future": "21",
          "time": "17:00",
          "referral_for": "Heart failure"
        },
        {
          "id": "5",
          "days_in_future": "28",
          "time": "18:00",
          "referral_for": "Heart failure"
        }
      ]
    },
    {
      "type": "cardiology",
      "id": "6",
      "name": "Street Lane Services - Cardiology Diagnosis and Management Clinic",
      "location": "12 Devonshire Avenue, Leeds, LS8 1AY",
      "lat": 53.843252,
      "lng": -1.513454,
      "phone_number": "0113 2371603",
      "distance_away": "100",
      "distance_bucket": "2",
      "cqc_rating_number": "5",
      "cqc_rating": "unknown",
      "accessibility": ["braille", "disabled-parking", "disabled-wc", "induction-loop", "rnid", "signing", "wheelchair-access", "step-free-access"],
      "facilities": ["cafe", "pharmacy", "library", "shop"],
      "choices_rating": "4",
      "parking": ["car", "cycle", "disabled"],
      "appointments":
      [
        {
          "id": "1",
          "days_in_future": "100",
          "time": "10:00",
          "referral_for": "Heart failure"
        },
        {
          "id": "2",
          "days_in_future": "7",
          "time": "14:00",
          "referral_for": "Heart failure"
        },
        {
          "id": "3",
          "days_in_future": "14",
          "time": "15:00",
          "referral_for": "Heart failure"
        },
        {
          "id": "4",
          "days_in_future": "21",
          "time": "17:00",
          "referral_for": "Heart failure"
        },
        {
          "id": "5",
          "days_in_future": "28",
          "time": "18:00",
          "referral_for": "Heart failure"
        }
      ],
      "booking_instructions": "Please call the number above, service open 09:30 - 17:00, Monday - Friday."
    },
    {
      "type": "respiratory",
      "id": "7",
      "name": "Respiratory Medicine - Leeds TH (Leeds Gen Inf) - RR8",
      "location": "Leeds General Infirmary, Leeds, LS1 3EX",
      "lat": 53.801445,
      "lng": -1.551743,
      "phone_number": "",
      "distance_away": "5",
      "distance_bucket": "5",
      "cqc_rating_number": "3",
      "cqc_rating": "imp",
      "accessibility": ["braille", "disabled-parking", "disabled-wc", "induction-loop", "rnid", "signing", "wheelchair-access", "step-free-access"],
      "facilities": ["cafe", "pharmacy", "library", "shop"],
      "choices_rating": "4",
      "parking": ["car", "cycle", "disabled"],
      "appointments":
      [
        {
          "id": "1",
          "days_in_future": "2",
          "time": "9:30",
          "referral_for": "Wheezing"
        },
        {
          "id": "2",
          "days_in_future": "2",
          "time": "13:30",
          "referral_for": "Wheezing"
        },
        {
          "id": "3",
          "days_in_future": "2",
          "time": "17:30",
          "referral_for": "Wheezing"
        },
        {
          "id": "10",
          "days_in_future": "4",
          "time": "11:30",
          "referral_for": "Wheezing"
        },
        {
          "id": "11",
          "days_in_future": "7",
          "time": "11:30",
          "referral_for": "Wheezing"
        },
        {
          "id": "12",
          "days_in_future": "14",
          "time": "11:30",
          "referral_for": "Wheezing"
        }
      ]
    },
    {
      "type": "respiratory",
      "id": "8",
      "name": "Respiratory Medicine - Harrogate Trust (Harrogate District Hospital) - RCD",
      "location": "Lancaster Park Road, Harrogate, North Yorkshire, HG2 7SX",
      "lat": 53.993009,
      "lng": -1.518117,
      "phone_number": "",
      "distance_away": "2",
      "distance_bucket": "2",
      "cqc_rating_number": "2",
      "cqc_rating": "good",
      "accessibility": ["braille", "disabled-parking", "disabled-wc", "induction-loop", "rnid", "signing", "wheelchair-access", "step-free-access"],
      "facilities": ["cafe", "pharmacy", "library", "shop"],
      "choices_rating": "4",
      "parking": ["car", "cycle", "disabled"],
      "appointments":
      [
        {
          "id": "1",
          "days_in_future": "10",
          "time": "10:00",
          "referral_for": "Difficult breathing"
        },
        {
          "id": "2",
          "days_in_future": "7",
          "time": "14:00",
          "referral_for": "Difficult breathing"
        },
        {
          "id": "3",
          "days_in_future": "14",
          "time": "15:00",
          "referral_for": "Difficult breathing"
        },
        {
          "id": "4",
          "days_in_future": "21",
          "time": "17:00",
          "referral_for": "Difficult breathing"
        },
        {
          "id": "5",
          "days_in_future": "28",
          "time": "18:00",
          "referral_for": "Difficult breathing"
        }
      ]
    },
    {
      "type": "respiratory",
      "id": "9",
      "name": "Respiratory Medicine - Rotherham Foundation Trust - RFR",
      "location": "Moorgate Rd, Rotherham, South Yorkshire S60 2UD",
      "lat": 53.414411,
      "lng": -1.342573,
      "phone_number": "",
      "distance_away": "28",
      "distance_bucket": "50",
      "cqc_rating_number": "1",
      "cqc_rating": "outstanding",
      "accessibility": ["braille", "disabled-parking", "disabled-wc", "induction-loop", "rnid", "signing", "wheelchair-access", "step-free-access"],
      "facilities": ["cafe", "pharmacy", "library", "shop"],
      "choices_rating": "4",
      "parking": ["car", "cycle", "disabled"],
      "appointments":
      [
        {
          "id": "1",
          "days_in_future": "14",
          "time": "10:00",
          "referral_for": "Coughing"
        },
        {
          "id": "2",
          "days_in_future": "7",
          "time": "14:00",
          "referral_for": "Coughing"
        },
        {
          "id": "3",
          "days_in_future": "14",
          "time": "15:00",
          "referral_for": "Coughing"
        },
        {
          "id": "4",
          "days_in_future": "21",
          "time": "17:00",
          "referral_for": "Coughing"
        },
        {
          "id": "5",
          "days_in_future": "28",
          "time": "18:00",
          "referral_for": "Coughing"
        }
      ]
    }
  ]
}
